…
Si no hay problemas, podemos ver el resumen:


```r
resumen <- ajuste$summary()
resumen
```

```
## # A tibble: 23 × 10
##    variable   mean median    sd   mad     q5    q95  rhat ess_bulk ess_tail
##    <chr>     <num>  <num> <num> <num>  <num>  <num> <num>    <num>    <num>
##  1 lp__     -46.2  -45.9   1.07 0.766 -48.3  -45.2   1.00    6796.    8066.
##  2 mu       176.   176.    1.35 1.31  174.   178.    1.00   12204.    9317.
##  3 sigma      6.70   6.54  1.18 1.10    5.07   8.85  1.00   12061.    8424.
##  4 y_sim[1] 176.   176.    7.00 6.76  164.   187.    1.00   15924.   15078.
##  5 y_sim[2] 176.   176.    6.91 6.76  164.   187.    1.00   15815.   15205.
##  6 y_sim[3] 176.   176.    7.01 6.77  164.   187.    1.00   14830.   15367.
##  7 y_sim[4] 176.   176.    6.95 6.69  164.   187.    1.00   15770.   15668.
##  8 y_sim[5] 176.   176.    6.91 6.73  164.   187.    1.00   15282.   14563.
##  9 y_sim[6] 176.   176.    6.99 6.69  164.   187.    1.00   16240.   15265.
## 10 y_sim[7] 176.   176.    6.90 6.61  164.   187.    1.00   15662.   15977.
## # ℹ 13 more rows
```
…
