Sección 5 Intervalos de confianza y remuestreo | Fundamentos de Estadística con Remuestreo
…
# seleccionar variable de ingreso corriente
hogar <- concentrado_hogar %>% 
    mutate(
        upm = as.integer(upm),
        edo = str_sub(ubica_geo, 1, 2)
        ) %>% 
    select(folioviv, foliohog, est_dis, upm, factor, ing_cor, 
       edad_jefe, edo) %>% 
    group_by(est_dis) %>% 
    mutate(n = n_distinct(upm)) %>% # número de upms por estrato
    ungroup()
hogar

## # A tibble: 74,647 × 9
##     folioviv foliohog est_dis   upm factor ing_cor edad_jefe edo       n
##        <dbl>    <dbl>   <dbl> <int>  <dbl>   <dbl>     <dbl> <chr> <int>
##  1 100013601        1       2     1    175  76404.        74 10      106
##  2 100013602        1       2     1    175  42988.        48 10      106
##  3 100013603        1       2     1    175 580698.        39 10      106
##  4 100013604        1       2     1    175  46253.        70 10      106
##  5 100013606        1       2     1    175  53837.        51 10      106
##  6 100026701        1       2     2    189 237743.        41 10      106
##  7 100026703        1       2     2    189  32607.        57 10      106
##  8 100026704        1       2     2    189 169918.        53 10      106
##  9 100026706        1       2     2    189  17311.        30 10      106
## 10 100027201        1       2     3    186 120488.        69 10      106
## # ℹ 74,637 more rows
…
enigh_boot %>% 
  srvyr::summarise(mean_ingcor = survey_mean(ing_cor, vartype =  "ci"))

## # A tibble: 1 × 3
##   mean_ingcor mean_ingcor_low mean_ingcor_upp
##         <dbl>           <dbl>           <dbl>
## 1      49610.          48709.          50512.

# por estado
enigh_boot %>% 
  group_by(edo) %>% 
  srvyr::summarise(mean_ingcor = survey_mean(ing_cor)) 

## # A tibble: 30 × 3
##    edo   mean_ingcor mean_ingcor_se
##    <chr>       <dbl>          <dbl>
##  1 10         50161.           942.
##  2 11         46142.          1252.
##  3 12         29334.          1067.
##  4 13         38783.           933.
##  5 14         60541.          1873.
##  6 15         48013.          1245.
##  7 16         42653.          1239.
##  8 17         42973.          1675.
##  9 18         48148.          1822.
## 10 19         68959.          3625.
## # ℹ 20 more rows
…
El paquete rsample (forma parte de la colección tidymodels)
y tiene una función bootstraps() que regresa un arreglo cuadrangular
(tibble, data.frame) que incluye una columna con las muestras bootstrap y un
identificador del número y tipo de muestra.

Veamos un ejemplo donde seleccionamos muestras del conjunto de datos
muestra_computos que contiene 10,000 observaciones.

library(rsample)

load("data/election_2012.rda")
muestra_computos <- slice_sample(election_2012, n = 10000)
muestra_computos

## # A tibble: 10,000 × 23
##    state_code state_name   state_abbr district_loc_17 district_fed_17 polling_id
##    <chr>      <chr>        <chr>                <int>           <int>      <int>
##  1 15         México       MEX                     45              40      77364
##  2 28         Tamaulipas   TAM                      6               9     126685
##  3 18         Nayarit      NAY                      7               2      86587
##  4 09         Ciudad de M… CDMX                     1               1      22214
##  5 29         Tlaxcala     TLAX                    10               1     127221
##  6 13         Hidalgo      HGO                      5               2      49224
##  7 07         Chiapas      CHPS                    15              10      13835
##  8 19         Nuevo León   NL                       3               6      90042
##  9 25         Sinaloa      SIN                      6               3     113407
## 10 15         México       MEX                     22              17      67597
## # ℹ 9,990 more rows
## # ℹ 17 more variables: section <int>, region <chr>, polling_type <chr>,
## #   section_type <chr>, pri_pvem <int>, pan <int>, panal <int>,
## #   prd_pt_mc <int>, otros <int>, total <int>, nominal_list <int>,
## #   pri_pvem_pct <dbl>, pan_pct <dbl>, panal_pct <dbl>, prd_pt_mc_pct <dbl>,
## #   otros_pct <dbl>, winner <chr>

Generamos 100 muestras bootstrap, y la función nos regresa un arreglo con 100
renglones, cada uno corresponde a una muestra bootstrap.

set.seed(839287482)
computos_boot <- bootstraps(muestra_computos, times = 100)
computos_boot

## # Bootstrap sampling 
## # A tibble: 100 × 2
##    splits               id          
##    <list>               <chr>       
##  1 <split [10000/3647]> Bootstrap001
##  2 <split [10000/3623]> Bootstrap002
##  3 <split [10000/3724]> Bootstrap003
##  4 <split [10000/3682]> Bootstrap004
##  5 <split [10000/3696]> Bootstrap005
##  6 <split [10000/3716]> Bootstrap006
##  7 <split [10000/3679]> Bootstrap007
##  8 <split [10000/3734]> Bootstrap008
##  9 <split [10000/3632]> Bootstrap009
## 10 <split [10000/3692]> Bootstrap010
## # ℹ 90 more rows
…
first_computos_boot <- computos_boot$splits[[1]]
first_computos_boot 

## <Analysis/Assess/Total>
## <10000/3647/10000>

Y podemos obtener los datos de la muestra bootstrap con la función
as.data.frame()

as.data.frame(first_computos_boot)

## # A tibble: 10,000 × 23
##    state_code state_name   state_abbr district_loc_17 district_fed_17 polling_id
##    <chr>      <chr>        <chr>                <int>           <int>      <int>
##  1 14         Jalisco      JAL                     14              14      57620
##  2 31         Yucatán      YUC                      7               3     139226
##  3 14         Jalisco      JAL                     14              14      57998
##  4 16         Michoacán    MICH                    13               3      79390
##  5 21         Puebla       PUE                     13               7     101237
##  6 14         Jalisco      JAL                     12              12      57145
##  7 10         Durango      DGO                      4               1      34549
##  8 11         Guanajuato   GTO                     20              10      42863
##  9 03         Baja Califo… BCS                      9               1       5541
## 10 14         Jalisco      JAL                     16              16      58584
## # ℹ 9,990 more rows
## # ℹ 17 more variables: section <int>, region <chr>, polling_type <chr>,
## #   section_type <chr>, pri_pvem <int>, pan <int>, panal <int>,
## #   prd_pt_mc <int>, otros <int>, total <int>, nominal_list <int>,
## #   pri_pvem_pct <dbl>, pan_pct <dbl>, panal_pct <dbl>, prd_pt_mc_pct <dbl>,
## #   otros_pct <dbl>, winner <chr>
…
