Sección 12 Métodos de Cadenas de Markov Monte Carlo | Fundamentos de Estadística con Remuestreo
…
# esta no es una manera muy rápida, podríamos calcular todas las
# simulaciones de cada parámetro de manera vectorizada
sims_posterior <- tibble(rep = 1:5000) %>% 
  mutate(sims = map(rep, ~ simular_conjunta(.x, datos))) %>% 
  unnest(cols = sims)
sims_posterior

## # A tibble: 20,000 × 3
##      rep sabor     valor_sim
##    <int> <chr>         <dbl>
##  1     1 fresa         0.793
##  2     1 limón         0.836
##  3     1 mango         0.861
##  4     1 guanábana     0.621
##  5     2 fresa         0.777
##  6     2 limón         0.819
##  7     2 mango         0.895
##  8     2 guanábana     0.711
##  9     3 fresa         0.677
## 10     3 limón         0.840
## # ℹ 19,990 more rows
…
